module detect

go 1.13

require (
	github.com/go-telegram-bot-api/telegram-bot-api v4.6.4+incompatible
	github.com/joho/godotenv v1.3.0
	github.com/kr/fs v0.1.0 // indirect
	github.com/kr/pretty v0.2.1 // indirect
	github.com/kr/text v0.2.0 // indirect
	github.com/sirupsen/logrus v1.7.0
	github.com/technoweenie/multipartstreamer v1.0.1 // indirect
	github.com/tools/godep v0.0.0-20180126220526-ce0bfadeb516 // indirect
	golang.org/x/tools v0.0.0-20201125231158-b5590deeca9b // indirect
)
